{
  "version": "0.3.14-fixed",
  "steps": [
    {
      "tag": "CreateSource",
      "source": "DS"
    },
    {
      "tag": "CreateArgument",
      "location": {
        "tag": "Source",
        "source": "DS"
      },
      "argument": "provider",
      "value": "\"sqlite\""
    },
    {
      "tag": "CreateArgument",
      "location": {
        "tag": "Source",
        "source": "DS"
      },
      "argument": "url",
      "value": "env(\"DATABASE_URL\")"
    },
    {
      "tag": "CreateModel",
      "model": "User"
    },
    {
      "tag": "CreateField",
      "model": "User",
      "field": "id",
      "type": "Int",
      "arity": "Required"
    },
    {
      "tag": "CreateDirective",
      "location": {
        "path": {
          "tag": "Field",
          "model": "User",
          "field": "id"
        },
        "directive": "id"
      }
    },
    {
      "tag": "CreateDirective",
      "location": {
        "path": {
          "tag": "Field",
          "model": "User",
          "field": "id"
        },
        "directive": "default"
      }
    },
    {
      "tag": "CreateArgument",
      "location": {
        "tag": "Directive",
        "path": {
          "tag": "Field",
          "model": "User",
          "field": "id"
        },
        "directive": "default"
      },
      "argument": "",
      "value": "autoincrement()"
    },
    {
      "tag": "CreateField",
      "model": "User",
      "field": "email",
      "type": "String",
      "arity": "Required"
    },
    {
      "tag": "CreateDirective",
      "location": {
        "path": {
          "tag": "Field",
          "model": "User",
          "field": "email"
        },
        "directive": "unique"
      }
    },
    {
      "tag": "CreateField",
      "model": "User",
      "field": "name",
      "type": "String",
      "arity": "Optional"
    },
    {
      "tag": "CreateField",
      "model": "User",
      "field": "bio",
      "type": "String",
      "arity": "Required"
    },
    {
      "tag": "CreateField",
      "model": "User",
      "field": "project",
      "type": "Project",
      "arity": "Optional"
    },
    {
      "tag": "CreateModel",
      "model": "Project"
    },
    {
      "tag": "CreateField",
      "model": "Project",
      "field": "id",
      "type": "Int",
      "arity": "Required"
    },
    {
      "tag": "CreateDirective",
      "location": {
        "path": {
          "tag": "Field",
          "model": "Project",
          "field": "id"
        },
        "directive": "id"
      }
    },
    {
      "tag": "CreateDirective",
      "location": {
        "path": {
          "tag": "Field",
          "model": "Project",
          "field": "id"
        },
        "directive": "default"
      }
    },
    {
      "tag": "CreateArgument",
      "location": {
        "tag": "Directive",
        "path": {
          "tag": "Field",
          "model": "Project",
          "field": "id"
        },
        "directive": "default"
      },
      "argument": "",
      "value": "autoincrement()"
    },
    {
      "tag": "CreateField",
      "model": "Project",
      "field": "createdAt",
      "type": "DateTime",
      "arity": "Required"
    },
    {
      "tag": "CreateDirective",
      "location": {
        "path": {
          "tag": "Field",
          "model": "Project",
          "field": "createdAt"
        },
        "directive": "default"
      }
    },
    {
      "tag": "CreateArgument",
      "location": {
        "tag": "Directive",
        "path": {
          "tag": "Field",
          "model": "Project",
          "field": "createdAt"
        },
        "directive": "default"
      },
      "argument": "",
      "value": "now()"
    },
    {
      "tag": "CreateField",
      "model": "Project",
      "field": "updatedAt",
      "type": "DateTime",
      "arity": "Required"
    },
    {
      "tag": "CreateDirective",
      "location": {
        "path": {
          "tag": "Field",
          "model": "Project",
          "field": "updatedAt"
        },
        "directive": "updatedAt"
      }
    },
    {
      "tag": "CreateField",
      "model": "Project",
      "field": "projectLead",
      "type": "String",
      "arity": "Required"
    },
    {
      "tag": "CreateField",
      "model": "Project",
      "field": "group",
      "type": "User",
      "arity": "List"
    },
    {
      "tag": "CreateField",
      "model": "Project",
      "field": "name",
      "type": "String",
      "arity": "Optional"
    },
    {
      "tag": "CreateField",
      "model": "Project",
      "field": "description",
      "type": "String",
      "arity": "Optional"
    }
  ]
}